EESchema Schematic File Version 4
LIBS:Step-Down-3.3V-cache
EELAYER 26 0
EELAYER END
$Descr A4 11693 8268
encoding utf-8
Sheet 1 1
Title "Step Down 3.3V"
Date ""
Rev "A"
Comp ""
Comment1 ""
Comment2 ""
Comment3 ""
Comment4 ""
$EndDescr
$Comp
L Step-Down-3.3V-rescue:PWR_FLAG #FLG01
U 1 1 5A434EF1
P 4050 2000
F 0 "#FLG01" H 4050 2075 50  0001 C CNN
F 1 "PWR_FLAG" H 4050 2150 50  0000 C CNN
F 2 "" H 4050 2000 50  0001 C CNN
F 3 "" H 4050 2000 50  0001 C CNN
	1    4050 2000
	1    0    0    -1  
$EndComp
$Comp
L Step-Down-3.3V-rescue:GND #PWR02
U 1 1 5A434EF7
P 4050 2000
F 0 "#PWR02" H 4050 1750 50  0001 C CNN
F 1 "GND" H 4050 1850 50  0000 C CNN
F 2 "" H 4050 2000 50  0001 C CNN
F 3 "" H 4050 2000 50  0001 C CNN
	1    4050 2000
	1    0    0    -1  
$EndComp
$Comp
L Step-Down-3.3V-rescue:L_Small L1
U 1 1 5A434F00
P 3950 2750
F 0 "L1" H 3980 2790 50  0000 L CNN
F 1 "2.2uH" H 3980 2710 50  0000 L CNN
F 2 "lucc-footprint:Inductor_TDK_VLF302512MT" H 3950 2750 50  0001 C CNN
F 3 "" H 3950 2750 50  0001 C CNN
F 4 "~" H 500 1150 50  0001 C CNN "Config"
F 5 "VLF302512MT-2R2M" H 500 1150 50  0001 C CNN "MPN"
F 6 "~" H 500 1150 50  0001 C CNN "Rating"
	1    3950 2750
	0    -1   -1   0   
$EndComp
$Comp
L Step-Down-3.3V-rescue:GND #PWR03
U 1 1 5A434F07
P 3350 3650
F 0 "#PWR03" H 3350 3400 50  0001 C CNN
F 1 "GND" H 3350 3500 50  0000 C CNN
F 2 "" H 3350 3650 50  0001 C CNN
F 3 "" H 3350 3650 50  0001 C CNN
	1    3350 3650
	1    0    0    -1  
$EndComp
$Comp
L Step-Down-3.3V-rescue:GND #PWR04
U 1 1 5A434F0D
P 3950 3250
F 0 "#PWR04" H 3950 3000 50  0001 C CNN
F 1 "GND" H 3950 3100 50  0000 C CNN
F 2 "" H 3950 3250 50  0001 C CNN
F 3 "" H 3950 3250 50  0001 C CNN
	1    3950 3250
	1    0    0    -1  
$EndComp
$Comp
L Step-Down-3.3V-rescue:R R1
U 1 1 5A434F16
P 4250 2950
F 0 "R1" V 4330 2950 50  0000 C CNN
F 1 "330" V 4250 2950 50  0000 C CNN
F 2 "Resistors_SMD:R_0603_HandSoldering" V 4180 2950 50  0001 C CNN
F 3 "" H 4250 2950 50  0001 C CNN
F 4 "~" H 500 1150 50  0001 C CNN "Config"
F 5 "~" H 500 1150 50  0001 C CNN "MPN"
F 6 "1/10W 1%" H 500 1150 50  0001 C CNN "Rating"
	1    4250 2950
	0    1    1    0   
$EndComp
$Comp
L Step-Down-3.3V-rescue:LED_Small_ALT D1
U 1 1 5A434F21
P 4100 3100
F 0 "D1" H 4050 3225 50  0000 L CNN
F 1 "POWER GOOD" V 4025 2575 50  0000 L CNN
F 2 "LEDs:LED_0603_HandSoldering" V 4100 3100 50  0001 C CNN
F 3 "" V 4100 3100 50  0001 C CNN
F 4 "~" H 500 1150 50  0001 C CNN "Config"
F 5 "~" H 500 1150 50  0001 C CNN "MPN"
F 6 "~" H 500 1150 50  0001 C CNN "Rating"
F 7 "LED" H 4050 3325 50  0001 C CNN "comment"
	1    4100 3100
	0    -1   -1   0   
$EndComp
$Comp
L Step-Down-3.3V-rescue:C_Small C1
U 1 1 5A434F2B
P 2650 2975
F 0 "C1" H 2660 3045 50  0000 L CNN
F 1 "10uF" H 2660 2895 50  0000 L CNN
F 2 "Capacitors_SMD:C_1210_HandSoldering" H 2650 2975 50  0001 C CNN
F 3 "" H 2650 2975 50  0001 C CNN
F 4 "~" H 500 1150 50  0001 C CNN "Config"
F 5 "C3225X7R1E106K250AC" H 500 1150 50  0001 C CNN "MPN"
F 6 "25V X7R" V 2550 2900 50  0000 C CNN "Rating"
	1    2650 2975
	1    0    0    -1  
$EndComp
$Comp
L Step-Down-3.3V-rescue:C_Small C2
U 1 1 5A434F35
P 4725 2950
F 0 "C2" H 4735 3020 50  0000 L CNN
F 1 "22uF" H 4735 2870 50  0000 L CNN
F 2 "Capacitors_SMD:C_1210_HandSoldering" H 4725 2950 50  0001 C CNN
F 3 "" H 4725 2950 50  0001 C CNN
F 4 "~" H 500 1150 50  0001 C CNN "Config"
F 5 "C3225X7R1A226K230AC" H 500 1150 50  0001 C CNN "MPN"
F 6 "10V X7R" V 4625 2950 50  0000 C CNN "Rating"
	1    4725 2950
	1    0    0    -1  
$EndComp
$Comp
L Step-Down-3.3V-rescue:GND #PWR05
U 1 1 5A434F3C
P 4725 3175
F 0 "#PWR05" H 4725 2925 50  0001 C CNN
F 1 "GND" H 4725 3025 50  0000 C CNN
F 2 "" H 4725 3175 50  0001 C CNN
F 3 "" H 4725 3175 50  0001 C CNN
	1    4725 3175
	1    0    0    -1  
$EndComp
$Comp
L Step-Down-3.3V-rescue:GND #PWR06
U 1 1 5A434F42
P 2650 3200
F 0 "#PWR06" H 2650 2950 50  0001 C CNN
F 1 "GND" H 2650 3050 50  0000 C CNN
F 2 "" H 2650 3200 50  0001 C CNN
F 3 "" H 2650 3200 50  0001 C CNN
	1    2650 3200
	1    0    0    -1  
$EndComp
$Comp
L Step-Down-3.3V-rescue:PWR_FLAG #FLG07
U 1 1 5A434F48
P 4500 2000
F 0 "#FLG07" H 4500 2075 50  0001 C CNN
F 1 "PWR_FLAG" H 4500 2150 50  0000 C CNN
F 2 "" H 4500 2000 50  0001 C CNN
F 3 "" H 4500 2000 50  0001 C CNN
	1    4500 2000
	1    0    0    -1  
$EndComp
$Comp
L Step-Down-3.3V-rescue:+3V3 #PWR08
U 1 1 5A434F4E
P 4500 2000
F 0 "#PWR08" H 4500 1850 50  0001 C CNN
F 1 "+3V3" H 4500 2140 50  0000 C CNN
F 2 "" H 4500 2000 50  0001 C CNN
F 3 "" H 4500 2000 50  0001 C CNN
	1    4500 2000
	-1   0    0    1   
$EndComp
$Comp
L Step-Down-3.3V-rescue:TPS62172 U1
U 1 1 5A434F54
P 3400 2850
F 0 "U1" H 3150 3300 60  0000 C CNN
F 1 "TPS62172" H 3600 3300 60  0000 C CNN
F 2 "lucc-footprint:WSON" H 3300 2700 60  0001 C CNN
F 3 "" H 3300 2700 60  0001 C CNN
	1    3400 2850
	1    0    0    -1  
$EndComp
$Comp
L Step-Down-3.3V-rescue:VIN #PWR09
U 1 1 5A434F5B
P 2350 2650
F 0 "#PWR09" H 2350 2500 50  0001 C CNN
F 1 "VIN" H 2350 2790 50  0000 C CNN
F 2 "" H 2350 2650 50  0001 C CNN
F 3 "" H 2350 2650 50  0001 C CNN
	1    2350 2650
	1    0    0    -1  
$EndComp
$Comp
L Step-Down-3.3V-rescue:+3V3 #PWR010
U 1 1 5A434F61
P 5450 2700
F 0 "#PWR010" H 5450 2550 50  0001 C CNN
F 1 "+3V3" H 5450 2840 50  0000 C CNN
F 2 "" H 5450 2700 50  0001 C CNN
F 3 "" H 5450 2700 50  0001 C CNN
	1    5450 2700
	1    0    0    -1  
$EndComp
$Comp
L Step-Down-3.3V-rescue:PWR_FLAG #FLG011
U 1 1 5A434F73
P 5300 2000
F 0 "#FLG011" H 5300 2075 50  0001 C CNN
F 1 "PWR_FLAG" H 5300 2150 50  0000 C CNN
F 2 "" H 5300 2000 50  0001 C CNN
F 3 "" H 5300 2000 50  0001 C CNN
	1    5300 2000
	1    0    0    -1  
$EndComp
$Comp
L Step-Down-3.3V-rescue:VIN #PWR012
U 1 1 5A434F79
P 5300 2000
F 0 "#PWR012" H 5300 1850 50  0001 C CNN
F 1 "VIN" H 5300 2140 50  0000 C CNN
F 2 "" H 5300 2000 50  0001 C CNN
F 3 "" H 5300 2000 50  0001 C CNN
	1    5300 2000
	-1   0    0    1   
$EndComp
Connection ~ 3300 3600
Connection ~ 4725 2750
Connection ~ 4450 2750
Connection ~ 2850 2750
Connection ~ 3950 3200
Connection ~ 3350 3600
Connection ~ 4150 2750
Wire Wire Line
	3200 3600 3200 3550
Wire Wire Line
	2650 3075 2650 3200
Wire Wire Line
	4725 2750 4725 2850
Wire Wire Line
	4725 3050 4725 3175
Wire Wire Line
	2850 2750 2850 2950
Wire Wire Line
	4450 2750 4450 2950
Wire Wire Line
	4450 2950 4400 2950
Wire Wire Line
	4100 2950 4100 3000
Wire Wire Line
	3950 3250 3950 3200
Wire Wire Line
	3800 3200 3950 3200
Wire Wire Line
	3350 3600 3350 3650
Wire Wire Line
	3800 3050 3800 3200
Wire Wire Line
	3800 2950 4100 2950
Wire Wire Line
	4150 2850 4150 2750
Wire Wire Line
	3800 2850 4150 2850
Wire Wire Line
	4050 2750 4150 2750
Wire Wire Line
	3500 3600 3500 3550
Wire Wire Line
	3200 3600 3300 3600
Wire Wire Line
	3300 3550 3300 3600
Wire Wire Line
	2850 2950 2900 2950
Wire Wire Line
	3800 2750 3850 2750
Wire Wire Line
	2350 2750 2650 2750
Wire Wire Line
	2650 2750 2650 2875
Connection ~ 2650 2750
Wire Wire Line
	2350 2750 2350 2650
Wire Wire Line
	5450 2750 5450 2700
$Comp
L Step-Down-3.3V-rescue:Conn_01x03_Male J1
U 1 1 5A43560A
P 7000 2850
F 0 "J1" H 7000 3050 50  0000 C CNN
F 1 "Conn_01x03_Male" H 7000 2650 50  0000 C CNN
F 2 "Pin_Headers:Pin_Header_Straight_1x03_Pitch2.54mm" H 7000 2850 50  0001 C CNN
F 3 "" H 7000 2850 50  0001 C CNN
	1    7000 2850
	-1   0    0    -1  
$EndComp
$Comp
L Step-Down-3.3V-rescue:VIN #PWR013
U 1 1 5A4356F2
P 6500 2750
F 0 "#PWR013" H 6500 2600 50  0001 C CNN
F 1 "VIN" H 6500 2890 50  0000 C CNN
F 2 "" H 6500 2750 50  0001 C CNN
F 3 "" H 6500 2750 50  0001 C CNN
	1    6500 2750
	0    -1   -1   0   
$EndComp
$Comp
L Step-Down-3.3V-rescue:GND #PWR014
U 1 1 5A435728
P 6700 2850
F 0 "#PWR014" H 6700 2600 50  0001 C CNN
F 1 "GND" H 6700 2700 50  0000 C CNN
F 2 "" H 6700 2850 50  0001 C CNN
F 3 "" H 6700 2850 50  0001 C CNN
	1    6700 2850
	0    1    1    0   
$EndComp
$Comp
L Step-Down-3.3V-rescue:+3V3 #PWR015
U 1 1 5A435756
P 6500 2950
F 0 "#PWR015" H 6500 2800 50  0001 C CNN
F 1 "+3V3" H 6500 3090 50  0000 C CNN
F 2 "" H 6500 2950 50  0001 C CNN
F 3 "" H 6500 2950 50  0001 C CNN
	1    6500 2950
	0    -1   -1   0   
$EndComp
Wire Wire Line
	6500 2950 6800 2950
Wire Wire Line
	6800 2850 6700 2850
Wire Wire Line
	6800 2750 6500 2750
Wire Wire Line
	3300 3600 3350 3600
Wire Wire Line
	4725 2750 5450 2750
Wire Wire Line
	4450 2750 4725 2750
Wire Wire Line
	2850 2750 2900 2750
Wire Wire Line
	3950 3200 4100 3200
Wire Wire Line
	3350 3600 3500 3600
Wire Wire Line
	4150 2750 4450 2750
Wire Wire Line
	2650 2750 2850 2750
$EndSCHEMATC
