G04 #@! TF.FileFunction,Copper,L1,Top,Signal*
%FSLAX46Y46*%
G04 Gerber Fmt 4.6, Leading zero omitted, Abs format (unit mm)*
G04 Created by KiCad (PCBNEW 4.0.7+dfsg1-1) date Thu Dec 28 22:54:59 2017*
%MOMM*%
%LPD*%
G01*
G04 APERTURE LIST*
%ADD10C,0.100000*%
%ADD11C,0.685800*%
%ADD12R,2.500000X2.000000*%
%ADD13R,2.000000X2.500000*%
%ADD14R,1.200000X0.900000*%
%ADD15R,1.450000X0.900000*%
%ADD16R,0.500000X0.250000*%
%ADD17R,0.900000X1.600000*%
%ADD18R,1.700000X1.700000*%
%ADD19O,1.700000X1.700000*%
%ADD20C,0.406400*%
%ADD21C,0.254000*%
%ADD22C,0.203200*%
G04 APERTURE END LIST*
D10*
D11*
X2616200Y-6756400D03*
X3225800Y-2362200D03*
X838200Y-12344400D03*
X12192000Y-8509000D03*
X10312400Y-11099800D03*
X8280400Y-11125200D03*
X5486400Y-11125200D03*
X2108200Y-10998200D03*
X7620000Y-8077200D03*
X812800Y-17221200D03*
X12115800Y-17195800D03*
X12090400Y-838200D03*
X787400Y-812800D03*
X6223000Y-6908800D03*
X6223000Y-6096000D03*
X6223000Y-3657600D03*
X6223000Y-4470400D03*
D12*
X2641600Y-4940800D03*
X2641600Y-8940800D03*
D13*
X9391400Y-8712200D03*
X5391400Y-8712200D03*
D14*
X4767400Y-2438400D03*
X6967400Y-2438400D03*
D15*
X9423400Y-4573800D03*
X9423400Y-6273800D03*
D14*
X10650400Y-2463800D03*
X8450400Y-2463800D03*
D16*
X5283295Y-4532000D03*
X5283295Y-5032000D03*
X5283295Y-5532000D03*
X5283295Y-6032000D03*
X7183295Y-6032000D03*
X7183295Y-5532000D03*
X7183295Y-5032000D03*
X7183295Y-4532000D03*
D17*
X6233295Y-5282000D03*
D18*
X4216400Y-15671800D03*
D19*
X6756400Y-15671800D03*
X9296400Y-15671800D03*
D11*
X6223000Y-5283200D03*
D20*
X2641600Y-4940800D02*
X2391600Y-4940800D01*
X2391600Y-4940800D02*
X1035999Y-6296401D01*
X1035999Y-6296401D02*
X1035999Y-11234999D01*
X1035999Y-11234999D02*
X4216400Y-14415400D01*
X4216400Y-14415400D02*
X4216400Y-15671800D01*
D21*
X5283295Y-5532000D02*
X3232800Y-5532000D01*
X3232800Y-5532000D02*
X2641600Y-4940800D01*
X5283295Y-5032000D02*
X2732800Y-5032000D01*
X2732800Y-5032000D02*
X2641600Y-4940800D01*
D20*
X9423400Y-6273800D02*
X9423400Y-8680200D01*
X9423400Y-8680200D02*
X9391400Y-8712200D01*
X9391400Y-8712200D02*
X9391400Y-15576800D01*
X9391400Y-15576800D02*
X9296400Y-15671800D01*
D21*
X9423400Y-6273800D02*
X10402400Y-6273800D01*
X10402400Y-6273800D02*
X10650400Y-6025800D01*
X10650400Y-6025800D02*
X10650400Y-3167800D01*
X10650400Y-3167800D02*
X10650400Y-2463800D01*
X7183295Y-5532000D02*
X8406600Y-5532000D01*
X8406600Y-5532000D02*
X9148400Y-6273800D01*
X9148400Y-6273800D02*
X9423400Y-6273800D01*
X6967400Y-2438400D02*
X8425000Y-2438400D01*
X8425000Y-2438400D02*
X8450400Y-2463800D01*
X6967400Y-2438400D02*
X7188200Y-2659200D01*
X7188200Y-2659200D02*
X7188200Y-4527095D01*
X7188200Y-4527095D02*
X7183295Y-4532000D01*
X7183295Y-5032000D02*
X8965200Y-5032000D01*
X8965200Y-5032000D02*
X9423400Y-4573800D01*
D22*
G36*
X4781550Y-4826052D02*
X4803807Y-4859828D01*
X4869399Y-4915732D01*
X4908762Y-4933475D01*
X4963650Y-4979825D01*
X4987871Y-4995014D01*
X5029200Y-5003800D01*
X5435600Y-5003800D01*
X5435600Y-5537200D01*
X5029200Y-5537200D01*
X5003021Y-5540631D01*
X3872887Y-5842000D01*
X3810000Y-5842000D01*
X3810000Y-4038600D01*
X3849041Y-4038600D01*
X4781550Y-4826052D01*
X4781550Y-4826052D01*
G37*
X4781550Y-4826052D02*
X4803807Y-4859828D01*
X4869399Y-4915732D01*
X4908762Y-4933475D01*
X4963650Y-4979825D01*
X4987871Y-4995014D01*
X5029200Y-5003800D01*
X5435600Y-5003800D01*
X5435600Y-5537200D01*
X5029200Y-5537200D01*
X5003021Y-5540631D01*
X3872887Y-5842000D01*
X3810000Y-5842000D01*
X3810000Y-4038600D01*
X3849041Y-4038600D01*
X4781550Y-4826052D01*
G36*
X10054977Y-5906446D02*
X10276394Y-7721600D01*
X8493760Y-7721600D01*
X8493760Y-6215380D01*
X8485755Y-6175852D01*
X8447947Y-6130466D01*
X7619400Y-5586130D01*
X7618583Y-5511800D01*
X8420708Y-5511800D01*
X10054977Y-5906446D01*
X10054977Y-5906446D01*
G37*
X10054977Y-5906446D02*
X10276394Y-7721600D01*
X8493760Y-7721600D01*
X8493760Y-6215380D01*
X8485755Y-6175852D01*
X8447947Y-6130466D01*
X7619400Y-5586130D01*
X7618583Y-5511800D01*
X8420708Y-5511800D01*
X10054977Y-5906446D01*
G36*
X12623800Y-17754600D02*
X330200Y-17754600D01*
X330200Y-6296401D01*
X527999Y-6296401D01*
X527999Y-11234999D01*
X566668Y-11429402D01*
X676789Y-11594209D01*
X3593609Y-14511029D01*
X3366400Y-14511029D01*
X3253448Y-14532282D01*
X3149708Y-14599037D01*
X3080113Y-14700893D01*
X3055629Y-14821800D01*
X3055629Y-16521800D01*
X3076882Y-16634752D01*
X3143637Y-16738492D01*
X3245493Y-16808087D01*
X3366400Y-16832571D01*
X5066400Y-16832571D01*
X5179352Y-16811318D01*
X5283092Y-16744563D01*
X5352687Y-16642707D01*
X5377171Y-16521800D01*
X5377171Y-16111665D01*
X5598308Y-16560219D01*
X6026446Y-16935775D01*
X6378793Y-17081710D01*
X6604000Y-16970086D01*
X6604000Y-15824200D01*
X6584000Y-15824200D01*
X6584000Y-15519400D01*
X6604000Y-15519400D01*
X6604000Y-14373514D01*
X6378793Y-14261890D01*
X6026446Y-14407825D01*
X5598308Y-14783381D01*
X5377171Y-15231935D01*
X5377171Y-14821800D01*
X5355918Y-14708848D01*
X5289163Y-14605108D01*
X5187307Y-14535513D01*
X5066400Y-14511029D01*
X4724400Y-14511029D01*
X4724400Y-14415400D01*
X4685731Y-14220997D01*
X4685731Y-14220996D01*
X4575610Y-14056190D01*
X1543999Y-11024579D01*
X1543999Y-10550400D01*
X2336800Y-10550400D01*
X2489200Y-10398000D01*
X2489200Y-9093200D01*
X2469200Y-9093200D01*
X2469200Y-8788400D01*
X2489200Y-8788400D01*
X2489200Y-7483600D01*
X2794000Y-7483600D01*
X2794000Y-8788400D01*
X2814000Y-8788400D01*
X2814000Y-9093200D01*
X2794000Y-9093200D01*
X2794000Y-10398000D01*
X2946400Y-10550400D01*
X4012857Y-10550400D01*
X4115668Y-10507814D01*
X4270143Y-10571800D01*
X5086600Y-10571800D01*
X5239000Y-10419400D01*
X5239000Y-8864600D01*
X5543800Y-8864600D01*
X5543800Y-10419400D01*
X5696200Y-10571800D01*
X6512657Y-10571800D01*
X6736711Y-10478994D01*
X6908194Y-10307511D01*
X7001000Y-10083457D01*
X7001000Y-9017000D01*
X6848600Y-8864600D01*
X5543800Y-8864600D01*
X5239000Y-8864600D01*
X5219000Y-8864600D01*
X5219000Y-8559800D01*
X5239000Y-8559800D01*
X5239000Y-7005000D01*
X5543800Y-7005000D01*
X5543800Y-8559800D01*
X6848600Y-8559800D01*
X7001000Y-8407400D01*
X7001000Y-7340943D01*
X6908194Y-7116889D01*
X6736711Y-6945406D01*
X6512657Y-6852600D01*
X5696200Y-6852600D01*
X5543800Y-7005000D01*
X5239000Y-7005000D01*
X5086600Y-6852600D01*
X4270143Y-6852600D01*
X4046089Y-6945406D01*
X3874606Y-7116889D01*
X3785836Y-7331200D01*
X2946400Y-7331200D01*
X2794000Y-7483600D01*
X2489200Y-7483600D01*
X2336800Y-7331200D01*
X1543999Y-7331200D01*
X1543999Y-6506821D01*
X1799249Y-6251571D01*
X3891600Y-6251571D01*
X3959514Y-6238792D01*
X3964736Y-6238108D01*
X3968535Y-6237095D01*
X4004552Y-6230318D01*
X4012056Y-6225489D01*
X4993391Y-5963800D01*
X5013685Y-5963800D01*
X5033295Y-5967771D01*
X5533295Y-5967771D01*
X5646247Y-5946518D01*
X5749987Y-5879763D01*
X5819582Y-5777907D01*
X5844066Y-5657000D01*
X5844066Y-5407000D01*
X5842000Y-5396020D01*
X5842000Y-5167202D01*
X5844066Y-5157000D01*
X5844066Y-4907000D01*
X5822813Y-4794048D01*
X5821169Y-4791493D01*
X5821155Y-4791418D01*
X5755683Y-4689672D01*
X5655784Y-4621414D01*
X5654994Y-4621254D01*
X5654202Y-4620713D01*
X5533295Y-4596229D01*
X5139291Y-4596229D01*
X4123701Y-3738619D01*
X4114363Y-3724108D01*
X4012507Y-3654513D01*
X3891600Y-3630029D01*
X1391600Y-3630029D01*
X1278648Y-3651282D01*
X1174908Y-3718037D01*
X1105313Y-3819893D01*
X1080829Y-3940800D01*
X1080829Y-5533151D01*
X676789Y-5937191D01*
X566668Y-6101998D01*
X527999Y-6296401D01*
X330200Y-6296401D01*
X330200Y-2743200D01*
X3557800Y-2743200D01*
X3557800Y-3009657D01*
X3650606Y-3233711D01*
X3822089Y-3405194D01*
X4046143Y-3498000D01*
X4462600Y-3498000D01*
X4615000Y-3345600D01*
X4615000Y-2590800D01*
X4919800Y-2590800D01*
X4919800Y-3345600D01*
X5072200Y-3498000D01*
X5488657Y-3498000D01*
X5712711Y-3405194D01*
X5884194Y-3233711D01*
X5977000Y-3009657D01*
X5977000Y-2743200D01*
X5824600Y-2590800D01*
X4919800Y-2590800D01*
X4615000Y-2590800D01*
X3710200Y-2590800D01*
X3557800Y-2743200D01*
X330200Y-2743200D01*
X330200Y-1867143D01*
X3557800Y-1867143D01*
X3557800Y-2133600D01*
X3710200Y-2286000D01*
X4615000Y-2286000D01*
X4615000Y-1531200D01*
X4919800Y-1531200D01*
X4919800Y-2286000D01*
X5824600Y-2286000D01*
X5977000Y-2133600D01*
X5977000Y-1988400D01*
X6056629Y-1988400D01*
X6056629Y-2888400D01*
X6077882Y-3001352D01*
X6144637Y-3105092D01*
X6246493Y-3174687D01*
X6367400Y-3199171D01*
X6756400Y-3199171D01*
X6756400Y-4158628D01*
X6716603Y-4184237D01*
X6647008Y-4286093D01*
X6622524Y-4407000D01*
X6622524Y-4657000D01*
X6643777Y-4769952D01*
X6650693Y-4780700D01*
X6647008Y-4786093D01*
X6622524Y-4907000D01*
X6622524Y-5157000D01*
X6643777Y-5269952D01*
X6650693Y-5280700D01*
X6647008Y-5286093D01*
X6622524Y-5407000D01*
X6622524Y-5657000D01*
X6643777Y-5769952D01*
X6710532Y-5873692D01*
X6812388Y-5943287D01*
X6933295Y-5967771D01*
X7433295Y-5967771D01*
X7454178Y-5963842D01*
X8087360Y-6379827D01*
X8087360Y-7428961D01*
X8080629Y-7462200D01*
X8080629Y-9962200D01*
X8101882Y-10075152D01*
X8168637Y-10178892D01*
X8270493Y-10248487D01*
X8391400Y-10272971D01*
X8883400Y-10272971D01*
X8883400Y-14576527D01*
X8854477Y-14582280D01*
X8479833Y-14832609D01*
X8229504Y-15207253D01*
X8167414Y-15519398D01*
X8055635Y-15519398D01*
X8166321Y-15294191D01*
X7914492Y-14783381D01*
X7486354Y-14407825D01*
X7134007Y-14261890D01*
X6908800Y-14373514D01*
X6908800Y-15519400D01*
X6928800Y-15519400D01*
X6928800Y-15824200D01*
X6908800Y-15824200D01*
X6908800Y-16970086D01*
X7134007Y-17081710D01*
X7486354Y-16935775D01*
X7914492Y-16560219D01*
X8166321Y-16049409D01*
X8055635Y-15824202D01*
X8167414Y-15824202D01*
X8229504Y-16136347D01*
X8479833Y-16510991D01*
X8854477Y-16761320D01*
X9296400Y-16849224D01*
X9738323Y-16761320D01*
X10112967Y-16510991D01*
X10363296Y-16136347D01*
X10451200Y-15694424D01*
X10451200Y-15649176D01*
X10363296Y-15207253D01*
X10112967Y-14832609D01*
X9899400Y-14689908D01*
X9899400Y-10272971D01*
X10391400Y-10272971D01*
X10504352Y-10251718D01*
X10608092Y-10184963D01*
X10677687Y-10083107D01*
X10702171Y-9962200D01*
X10702171Y-7462200D01*
X10680918Y-7349248D01*
X10630904Y-7271525D01*
X10558094Y-6674630D01*
X10567643Y-6672731D01*
X10707729Y-6579129D01*
X10955729Y-6331129D01*
X10994035Y-6273800D01*
X11049331Y-6191043D01*
X11082200Y-6025800D01*
X11082200Y-3224571D01*
X11250400Y-3224571D01*
X11363352Y-3203318D01*
X11467092Y-3136563D01*
X11536687Y-3034707D01*
X11561171Y-2913800D01*
X11561171Y-2013800D01*
X11539918Y-1900848D01*
X11473163Y-1797108D01*
X11371307Y-1727513D01*
X11250400Y-1703029D01*
X10050400Y-1703029D01*
X9937448Y-1724282D01*
X9833708Y-1791037D01*
X9764113Y-1892893D01*
X9739629Y-2013800D01*
X9739629Y-2913800D01*
X9760882Y-3026752D01*
X9827637Y-3130492D01*
X9929493Y-3200087D01*
X10050400Y-3224571D01*
X10218600Y-3224571D01*
X10218600Y-3827245D01*
X10148400Y-3813029D01*
X8698400Y-3813029D01*
X8585448Y-3834282D01*
X8481708Y-3901037D01*
X8412113Y-4002893D01*
X8387629Y-4123800D01*
X8387629Y-4600200D01*
X7744066Y-4600200D01*
X7744066Y-4407000D01*
X7722813Y-4294048D01*
X7656058Y-4190308D01*
X7620000Y-4165671D01*
X7620000Y-3189274D01*
X7680352Y-3177918D01*
X7688950Y-3172385D01*
X7729493Y-3200087D01*
X7850400Y-3224571D01*
X9050400Y-3224571D01*
X9163352Y-3203318D01*
X9267092Y-3136563D01*
X9336687Y-3034707D01*
X9361171Y-2913800D01*
X9361171Y-2013800D01*
X9339918Y-1900848D01*
X9273163Y-1797108D01*
X9171307Y-1727513D01*
X9050400Y-1703029D01*
X7850400Y-1703029D01*
X7737448Y-1724282D01*
X7728850Y-1729815D01*
X7688307Y-1702113D01*
X7567400Y-1677629D01*
X6367400Y-1677629D01*
X6254448Y-1698882D01*
X6150708Y-1765637D01*
X6081113Y-1867493D01*
X6056629Y-1988400D01*
X5977000Y-1988400D01*
X5977000Y-1867143D01*
X5884194Y-1643089D01*
X5712711Y-1471606D01*
X5488657Y-1378800D01*
X5072200Y-1378800D01*
X4919800Y-1531200D01*
X4615000Y-1531200D01*
X4462600Y-1378800D01*
X4046143Y-1378800D01*
X3822089Y-1471606D01*
X3650606Y-1643089D01*
X3557800Y-1867143D01*
X330200Y-1867143D01*
X330200Y-330200D01*
X12623800Y-330200D01*
X12623800Y-17754600D01*
X12623800Y-17754600D01*
G37*
X12623800Y-17754600D02*
X330200Y-17754600D01*
X330200Y-6296401D01*
X527999Y-6296401D01*
X527999Y-11234999D01*
X566668Y-11429402D01*
X676789Y-11594209D01*
X3593609Y-14511029D01*
X3366400Y-14511029D01*
X3253448Y-14532282D01*
X3149708Y-14599037D01*
X3080113Y-14700893D01*
X3055629Y-14821800D01*
X3055629Y-16521800D01*
X3076882Y-16634752D01*
X3143637Y-16738492D01*
X3245493Y-16808087D01*
X3366400Y-16832571D01*
X5066400Y-16832571D01*
X5179352Y-16811318D01*
X5283092Y-16744563D01*
X5352687Y-16642707D01*
X5377171Y-16521800D01*
X5377171Y-16111665D01*
X5598308Y-16560219D01*
X6026446Y-16935775D01*
X6378793Y-17081710D01*
X6604000Y-16970086D01*
X6604000Y-15824200D01*
X6584000Y-15824200D01*
X6584000Y-15519400D01*
X6604000Y-15519400D01*
X6604000Y-14373514D01*
X6378793Y-14261890D01*
X6026446Y-14407825D01*
X5598308Y-14783381D01*
X5377171Y-15231935D01*
X5377171Y-14821800D01*
X5355918Y-14708848D01*
X5289163Y-14605108D01*
X5187307Y-14535513D01*
X5066400Y-14511029D01*
X4724400Y-14511029D01*
X4724400Y-14415400D01*
X4685731Y-14220997D01*
X4685731Y-14220996D01*
X4575610Y-14056190D01*
X1543999Y-11024579D01*
X1543999Y-10550400D01*
X2336800Y-10550400D01*
X2489200Y-10398000D01*
X2489200Y-9093200D01*
X2469200Y-9093200D01*
X2469200Y-8788400D01*
X2489200Y-8788400D01*
X2489200Y-7483600D01*
X2794000Y-7483600D01*
X2794000Y-8788400D01*
X2814000Y-8788400D01*
X2814000Y-9093200D01*
X2794000Y-9093200D01*
X2794000Y-10398000D01*
X2946400Y-10550400D01*
X4012857Y-10550400D01*
X4115668Y-10507814D01*
X4270143Y-10571800D01*
X5086600Y-10571800D01*
X5239000Y-10419400D01*
X5239000Y-8864600D01*
X5543800Y-8864600D01*
X5543800Y-10419400D01*
X5696200Y-10571800D01*
X6512657Y-10571800D01*
X6736711Y-10478994D01*
X6908194Y-10307511D01*
X7001000Y-10083457D01*
X7001000Y-9017000D01*
X6848600Y-8864600D01*
X5543800Y-8864600D01*
X5239000Y-8864600D01*
X5219000Y-8864600D01*
X5219000Y-8559800D01*
X5239000Y-8559800D01*
X5239000Y-7005000D01*
X5543800Y-7005000D01*
X5543800Y-8559800D01*
X6848600Y-8559800D01*
X7001000Y-8407400D01*
X7001000Y-7340943D01*
X6908194Y-7116889D01*
X6736711Y-6945406D01*
X6512657Y-6852600D01*
X5696200Y-6852600D01*
X5543800Y-7005000D01*
X5239000Y-7005000D01*
X5086600Y-6852600D01*
X4270143Y-6852600D01*
X4046089Y-6945406D01*
X3874606Y-7116889D01*
X3785836Y-7331200D01*
X2946400Y-7331200D01*
X2794000Y-7483600D01*
X2489200Y-7483600D01*
X2336800Y-7331200D01*
X1543999Y-7331200D01*
X1543999Y-6506821D01*
X1799249Y-6251571D01*
X3891600Y-6251571D01*
X3959514Y-6238792D01*
X3964736Y-6238108D01*
X3968535Y-6237095D01*
X4004552Y-6230318D01*
X4012056Y-6225489D01*
X4993391Y-5963800D01*
X5013685Y-5963800D01*
X5033295Y-5967771D01*
X5533295Y-5967771D01*
X5646247Y-5946518D01*
X5749987Y-5879763D01*
X5819582Y-5777907D01*
X5844066Y-5657000D01*
X5844066Y-5407000D01*
X5842000Y-5396020D01*
X5842000Y-5167202D01*
X5844066Y-5157000D01*
X5844066Y-4907000D01*
X5822813Y-4794048D01*
X5821169Y-4791493D01*
X5821155Y-4791418D01*
X5755683Y-4689672D01*
X5655784Y-4621414D01*
X5654994Y-4621254D01*
X5654202Y-4620713D01*
X5533295Y-4596229D01*
X5139291Y-4596229D01*
X4123701Y-3738619D01*
X4114363Y-3724108D01*
X4012507Y-3654513D01*
X3891600Y-3630029D01*
X1391600Y-3630029D01*
X1278648Y-3651282D01*
X1174908Y-3718037D01*
X1105313Y-3819893D01*
X1080829Y-3940800D01*
X1080829Y-5533151D01*
X676789Y-5937191D01*
X566668Y-6101998D01*
X527999Y-6296401D01*
X330200Y-6296401D01*
X330200Y-2743200D01*
X3557800Y-2743200D01*
X3557800Y-3009657D01*
X3650606Y-3233711D01*
X3822089Y-3405194D01*
X4046143Y-3498000D01*
X4462600Y-3498000D01*
X4615000Y-3345600D01*
X4615000Y-2590800D01*
X4919800Y-2590800D01*
X4919800Y-3345600D01*
X5072200Y-3498000D01*
X5488657Y-3498000D01*
X5712711Y-3405194D01*
X5884194Y-3233711D01*
X5977000Y-3009657D01*
X5977000Y-2743200D01*
X5824600Y-2590800D01*
X4919800Y-2590800D01*
X4615000Y-2590800D01*
X3710200Y-2590800D01*
X3557800Y-2743200D01*
X330200Y-2743200D01*
X330200Y-1867143D01*
X3557800Y-1867143D01*
X3557800Y-2133600D01*
X3710200Y-2286000D01*
X4615000Y-2286000D01*
X4615000Y-1531200D01*
X4919800Y-1531200D01*
X4919800Y-2286000D01*
X5824600Y-2286000D01*
X5977000Y-2133600D01*
X5977000Y-1988400D01*
X6056629Y-1988400D01*
X6056629Y-2888400D01*
X6077882Y-3001352D01*
X6144637Y-3105092D01*
X6246493Y-3174687D01*
X6367400Y-3199171D01*
X6756400Y-3199171D01*
X6756400Y-4158628D01*
X6716603Y-4184237D01*
X6647008Y-4286093D01*
X6622524Y-4407000D01*
X6622524Y-4657000D01*
X6643777Y-4769952D01*
X6650693Y-4780700D01*
X6647008Y-4786093D01*
X6622524Y-4907000D01*
X6622524Y-5157000D01*
X6643777Y-5269952D01*
X6650693Y-5280700D01*
X6647008Y-5286093D01*
X6622524Y-5407000D01*
X6622524Y-5657000D01*
X6643777Y-5769952D01*
X6710532Y-5873692D01*
X6812388Y-5943287D01*
X6933295Y-5967771D01*
X7433295Y-5967771D01*
X7454178Y-5963842D01*
X8087360Y-6379827D01*
X8087360Y-7428961D01*
X8080629Y-7462200D01*
X8080629Y-9962200D01*
X8101882Y-10075152D01*
X8168637Y-10178892D01*
X8270493Y-10248487D01*
X8391400Y-10272971D01*
X8883400Y-10272971D01*
X8883400Y-14576527D01*
X8854477Y-14582280D01*
X8479833Y-14832609D01*
X8229504Y-15207253D01*
X8167414Y-15519398D01*
X8055635Y-15519398D01*
X8166321Y-15294191D01*
X7914492Y-14783381D01*
X7486354Y-14407825D01*
X7134007Y-14261890D01*
X6908800Y-14373514D01*
X6908800Y-15519400D01*
X6928800Y-15519400D01*
X6928800Y-15824200D01*
X6908800Y-15824200D01*
X6908800Y-16970086D01*
X7134007Y-17081710D01*
X7486354Y-16935775D01*
X7914492Y-16560219D01*
X8166321Y-16049409D01*
X8055635Y-15824202D01*
X8167414Y-15824202D01*
X8229504Y-16136347D01*
X8479833Y-16510991D01*
X8854477Y-16761320D01*
X9296400Y-16849224D01*
X9738323Y-16761320D01*
X10112967Y-16510991D01*
X10363296Y-16136347D01*
X10451200Y-15694424D01*
X10451200Y-15649176D01*
X10363296Y-15207253D01*
X10112967Y-14832609D01*
X9899400Y-14689908D01*
X9899400Y-10272971D01*
X10391400Y-10272971D01*
X10504352Y-10251718D01*
X10608092Y-10184963D01*
X10677687Y-10083107D01*
X10702171Y-9962200D01*
X10702171Y-7462200D01*
X10680918Y-7349248D01*
X10630904Y-7271525D01*
X10558094Y-6674630D01*
X10567643Y-6672731D01*
X10707729Y-6579129D01*
X10955729Y-6331129D01*
X10994035Y-6273800D01*
X11049331Y-6191043D01*
X11082200Y-6025800D01*
X11082200Y-3224571D01*
X11250400Y-3224571D01*
X11363352Y-3203318D01*
X11467092Y-3136563D01*
X11536687Y-3034707D01*
X11561171Y-2913800D01*
X11561171Y-2013800D01*
X11539918Y-1900848D01*
X11473163Y-1797108D01*
X11371307Y-1727513D01*
X11250400Y-1703029D01*
X10050400Y-1703029D01*
X9937448Y-1724282D01*
X9833708Y-1791037D01*
X9764113Y-1892893D01*
X9739629Y-2013800D01*
X9739629Y-2913800D01*
X9760882Y-3026752D01*
X9827637Y-3130492D01*
X9929493Y-3200087D01*
X10050400Y-3224571D01*
X10218600Y-3224571D01*
X10218600Y-3827245D01*
X10148400Y-3813029D01*
X8698400Y-3813029D01*
X8585448Y-3834282D01*
X8481708Y-3901037D01*
X8412113Y-4002893D01*
X8387629Y-4123800D01*
X8387629Y-4600200D01*
X7744066Y-4600200D01*
X7744066Y-4407000D01*
X7722813Y-4294048D01*
X7656058Y-4190308D01*
X7620000Y-4165671D01*
X7620000Y-3189274D01*
X7680352Y-3177918D01*
X7688950Y-3172385D01*
X7729493Y-3200087D01*
X7850400Y-3224571D01*
X9050400Y-3224571D01*
X9163352Y-3203318D01*
X9267092Y-3136563D01*
X9336687Y-3034707D01*
X9361171Y-2913800D01*
X9361171Y-2013800D01*
X9339918Y-1900848D01*
X9273163Y-1797108D01*
X9171307Y-1727513D01*
X9050400Y-1703029D01*
X7850400Y-1703029D01*
X7737448Y-1724282D01*
X7728850Y-1729815D01*
X7688307Y-1702113D01*
X7567400Y-1677629D01*
X6367400Y-1677629D01*
X6254448Y-1698882D01*
X6150708Y-1765637D01*
X6081113Y-1867493D01*
X6056629Y-1988400D01*
X5977000Y-1988400D01*
X5977000Y-1867143D01*
X5884194Y-1643089D01*
X5712711Y-1471606D01*
X5488657Y-1378800D01*
X5072200Y-1378800D01*
X4919800Y-1531200D01*
X4615000Y-1531200D01*
X4462600Y-1378800D01*
X4046143Y-1378800D01*
X3822089Y-1471606D01*
X3650606Y-1643089D01*
X3557800Y-1867143D01*
X330200Y-1867143D01*
X330200Y-330200D01*
X12623800Y-330200D01*
X12623800Y-17754600D01*
M02*
